{"count":6574,"page":1,"totalPages":658,"nextPage":2,"previousPage":0,"showingFrom":1,"showingTo":10,"items":[{"id":43764,"tipo":"Notícia","titulo":"Brasil inicia dia 24/06, em Brasília, o Programa Nacional de Inteligência e Governança Estatística e Geocientífica para subsidiar Políticas Públicas Preditivas","introducao":"No próximo dia 24 de junho, das 10h às 12h, no edifício do Serpro, em Brasília (SGAN Quadra 601, Módulo \"V\"), será lançado o Programa Nacional de Inteligência e Governança Estatística e Geocientífica para subsidiar Políticas Públicas Preditivas, com a...","data_publicacao":"18/06/2025 05:32:55","produto_id":0,"produtos":"","editorias":"ibge","imagens":"{\"image_intro\":\"images\\/agenciadenoticias\\/ibge\\/2025_06\\/serpro-home.jpg\",\"float_intro\":\"\",\"image_intro_alt\":\"\",\"image_intro_caption\":\"\",\"image_fulltext\":\"images\\/agenciadenoticias\\/ibge\\/2025_06\\/serpro-home.jpg\",\"float_fulltext\":\"\",\"image_fulltext_alt\":\"\",\"image_fulltext_caption\":\"\"}","produtos_relacionados":"","destaque":true,"link":"http://agenciadenoticias.ibge.gov.br/agencia-noticias/2012-agencia-de-noticias/noticias/43764-brasil-inicia-dia-24-06-em-brasilia-o-programa-nacional-de-inteligencia-e-governanca-estatistica-e-geocientifica-para-subsidiar-politicas-publicas-preditivas.html"},{"id":43751,"tipo":"Notícia","titulo":"Em Brasília, IBGE divulgará resultados de fecundidade e migração do Censo Demográfico 2022","introducao":"O Instituto Brasileiro de Geografia e Estatística (IBGE) divulgará, no dia 27 de junho, às 10h, em Brasília (DF), o Censo Demográfico 2022: Fecundidade e migração: Resultados preliminares da amostra. O evento ocorrerá no Auditório do Instituto de Química...","data_publicacao":"18/06/2025 10:25:37","produto_id":0,"produtos":"","editorias":"ibge;censo2020","imagens":"{\"image_intro\":\"images\\/agenciadenoticias\\/ibge\\/2025_06\\/Agncia-Intranet_875x485px_Fecundidade_Migrao_3_01.jpg\",\"float_intro\":\"\",\"image_intro_alt\":\"\",\"image_intro_caption\":\"\",\"image_fulltext\":\"images\\/agenciadenoticias\\/ibge\\/2025_06\\/Agncia-Intranet_875x485px_Fecundidade_Migrao_3_01.jpg\",\"float_fulltext\":\"\",\"image_fulltext_alt\":\"\",\"image_fulltext_caption\":\"\"}","produtos_relacionados":"","destaque":true,"link":"http://agenciadenoticias.ibge.gov.br/agencia-noticias/2012-agencia-de-noticias/noticias/43751-em-brasilia-ibge-divulgara-resultados-de-fecundidade-e-migracao-do-censo-demografico-2022.html"},{"id":43747,"tipo":"Notícia","titulo":"MPO publica no Diário Oficial recriação do Conselho Técnico do IBGE","introducao":"Órgão de assessoramento previsto em Lei, Conselho foi recriadoa pedido da atual administração do IBGE  Após duas décadas sem funcionamento, a presidência comunica a recriação do Conselho Técnico do IBGE, órgão colegiado estratégico de assessoramento e...","data_publicacao":"17/06/2025 11:37:46","produto_id":0,"produtos":"","editorias":"ibge","imagens":"{\"image_intro\":\"images\\/agenciadenoticias\\/ibge\\/_Comunicado-Presidencia.jpg\",\"float_intro\":\"\",\"image_intro_alt\":\"\",\"image_intro_caption\":\"\",\"image_fulltext\":\"images\\/agenciadenoticias\\/ibge\\/_Comunicado-Presidencia.jpg\",\"float_fulltext\":\"\",\"image_fulltext_alt\":\"\",\"image_fulltext_caption\":\"\"}","produtos_relacionados":"","destaque":true,"link":"http://agenciadenoticias.ibge.gov.br/agencia-noticias/2012-agencia-de-noticias/noticias/43747-mpo-publica-no-diario-oficial-recriacao-do-conselho-tecnico-do-ibge.html"},{"id":43738,"tipo":"Notícia","titulo":"IBGE abre 351 vagas para estagiários em todo o país, com bolsas de até R$ 1.125,69","introducao":"O Instituto Brasileiro de Geografia e Estatística (IBGE) está selecionando estagiários que estejam cursando a partir do 3º período de 26 cursos de ensino superior para atuarem em 26 estados e no Distrito Federal. As inscrições para a seleção, que será...","data_publicacao":"16/06/2025 02:24:03","produto_id":0,"produtos":"","editorias":"ibge","imagens":"{\"image_intro\":\"images\\/agenciadenoticias\\/ibge\\/2025_06\\/CDDI.jpg\",\"float_intro\":\"\",\"image_intro_alt\":\"\",\"image_intro_caption\":\"\",\"image_fulltext\":\"images\\/agenciadenoticias\\/ibge\\/2025_06\\/CDDI.jpg\",\"float_fulltext\":\"\",\"image_fulltext_alt\":\"\",\"image_fulltext_caption\":\"\"}","produtos_relacionados":"","destaque":true,"link":"http://agenciadenoticias.ibge.gov.br/agencia-noticias/2012-agencia-de-noticias/noticias/43738-ibge-abre-351-vagas-para-estagiarios-em-todo-o-pais-com-bolsas-de-ate-r-1-125-69.html"},{"id":43737,"tipo":"Notícia","titulo":"Fórum debate potencialidades e desafios para indicadores de juventude na Era Digital","introducao":"A mesa incluiu representantes da Guiné-Bissau, China, Etiópia e Brasil - Foto: @graoamarca A plenária da manhã do último dia do Triplo Fórum foi dedicada a refletir sobre juventudes, no plural. A mesa “Os atuais e novos indicadores de Juventude sob a...","data_publicacao":"16/06/2025 02:01:48","produto_id":0,"produtos":"","editorias":"ibge","imagens":"{\"image_intro\":\"images\\/agenciadenoticias\\/ibge\\/2025_06\\/Mesa-juventude_thumb_graomarca.jpg\",\"float_intro\":\"\",\"image_intro_alt\":\"\",\"image_intro_caption\":\"\",\"image_fulltext\":\"images\\/agenciadenoticias\\/ibge\\/2025_06\\/Mesa-juventude_home_graomarca.jpg\",\"float_fulltext\":\"\",\"image_fulltext_alt\":\"\",\"image_fulltext_caption\":\"\"}","produtos_relacionados":"","destaque":true,"link":"http://agenciadenoticias.ibge.gov.br/agencia-noticias/2012-agencia-de-noticias/noticias/43737-forum-debate-potencialidades-e-desafios-para-indicadores-de-juventude-na-era-digital.html"},{"id":43719,"tipo":"Notícia","titulo":"Confira a programação do IBGE para semana dos dias 16 a 20 de junho","introducao":"Foto: Arte sobre foto de Bel Corção/Brasil com S O Instituto Brasileiro de Geografia e Estatística (IBGE) disponibilizou hoje (16) a Agenda IBGE para semana dos dias 16 a 20 junho. O documento disponibilizado contempla os eventos, as reuniões internas e...","data_publicacao":"16/06/2025 09:00:00","produto_id":0,"produtos":"","editorias":"ibge","imagens":"{\"image_intro\":\"images\\/agenciadenoticias\\/ibge\\/2024_01\\/Agenda-IBGE_THUMB.jpg\",\"float_intro\":\"\",\"image_intro_alt\":\"\",\"image_intro_caption\":\"\",\"image_fulltext\":\"images\\/agenciadenoticias\\/ibge\\/2024_01\\/Agenda-IBGE_HOME.jpg\",\"float_fulltext\":\"\",\"image_fulltext_alt\":\"\",\"image_fulltext_caption\":\"\"}","produtos_relacionados":"","destaque":true,"link":"http://agenciadenoticias.ibge.gov.br/agencia-noticias/2012-agencia-de-noticias/noticias/43719-confira-a-programacao-do-ibge-para-semana-dos-dias-16-a-20-de-junho.html"},{"id":43724,"tipo":"Notícia","titulo":"Carta IBGE Ceará Brasil Sul Global e acordos marcam encerramento do Triplo Fórum Internacional","introducao":"IBGE e parceiros assinaram a Carta Ceará Brasil Sul Global - Foto: @graoamarca Organizado pelo IBGE, em coorganização do Governo do Estado do Ceará, o Triplo Fórum Internacional de Governança do Sul Global terminou, nesta sexta-feira (13), com a...","data_publicacao":"13/06/2025 06:37:48","produto_id":0,"produtos":"","editorias":"ibge","imagens":"{\"image_intro\":\"images\\/agenciadenoticias\\/ibge\\/2025_06\\/Encerramento-THUMB.jpg\",\"float_intro\":\"\",\"image_intro_alt\":\"\",\"image_intro_caption\":\"\",\"image_fulltext\":\"images\\/agenciadenoticias\\/ibge\\/2025_06\\/Encerramento-HOME.jpg\",\"float_fulltext\":\"\",\"image_fulltext_alt\":\"\",\"image_fulltext_caption\":\"\"}","produtos_relacionados":"","destaque":true,"link":"http://agenciadenoticias.ibge.gov.br/agencia-noticias/2012-agencia-de-noticias/noticias/43724-carta-ibge-ceara-brasil-sul-global-e-acordos-marcam-encerramento-do-triplo-forum-internacional.html"},{"id":43721,"tipo":"Notícia","titulo":"Presidente do IBGE propõe criação de um centro internacional de qualificação para os Institutos de Estatísticas dos BRICS","introducao":"Com presença dos INEs do BRICS, IBGE encerra segundo dia do Triplo Fórum Internacional - Foto: @graomarca Representantes da China e da Indonésia, o presidente do IBGE Marcio Pochmann e a chefe de Relações Internacionais do IBGE (GRI), Andrea Diniz da...","data_publicacao":"13/06/2025 12:46:02","produto_id":0,"produtos":"","editorias":"ibge","imagens":"{\"image_intro\":\"images\\/agenciadenoticias\\/ibge\\/2025_06\\/BRICS-THUMB.jpg\",\"float_intro\":\"\",\"image_intro_alt\":\"\",\"image_intro_caption\":\"\",\"image_fulltext\":\"images\\/agenciadenoticias\\/ibge\\/2025_06\\/BRICS-HOME.jpg\",\"float_fulltext\":\"\",\"image_fulltext_alt\":\"\",\"image_fulltext_caption\":\"\"}","produtos_relacionados":"","destaque":true,"link":"http://agenciadenoticias.ibge.gov.br/agencia-noticias/2012-agencia-de-noticias/noticias/43721-presidente-do-ibge-propoe-criacao-de-um-centro-internacional-de-qualificacao-para-os-institutos-de-estatisticas-dos-brics.html"},{"id":43699,"tipo":"Notícia","titulo":"Indicadores educacionais avançam em 2024, mas atraso escolar aumenta","introducao":"Necessidade de trabalhar, gravidez e falta de interesse pelo estudo são os três motivos que mais afastam as mulheres jovens da escola - Foto: Alba Rosa/AEN Em 2024, o Brasil tinha 9,1 milhões de pessoas com 15 anos ou mais de idade analfabetas,...","data_publicacao":"13/06/2025 10:00:00","produto_id":17270,"produtos":"17270|Divulgação anual#pnadc3|pnad-continua|2511","editorias":"sociais","imagens":"{\"image_intro\":\"images\\/agenciadenoticias\\/estatisticas_sociais\\/2025_06\\/PNADEDUC_THUMB_AlbaRosa-AEN.jpg\",\"float_intro\":\"\",\"image_intro_alt\":\"\",\"image_intro_caption\":\"\",\"image_fulltext\":\"images\\/agenciadenoticias\\/estatisticas_sociais\\/2025_06\\/PNADEDUC_HOME_AlbaRosa-AEN.jpg\",\"float_fulltext\":\"\",\"image_fulltext_alt\":\"\",\"image_fulltext_caption\":\"\"}","produtos_relacionados":"17270","destaque":true,"link":"http://agenciadenoticias.ibge.gov.br/agencia-noticias/2012-agencia-de-noticias/noticias/43699-indicadores-educacionais-avancam-em-2024-mas-atraso-escolar-aumenta.html"},{"id":43716,"tipo":"Notícia","titulo":"Mesa Global debate a construção de novo multilateralismo para os países em desenvolvimento","introducao":"José Meneleu, Hidelbrando Soares e Daniel Castro discutiram novas perspectivas para o multilateralismo global - Foto: @graoamarca A necessidade de repensar o modelo de cooperação internacional diante das persistentes assimetrias de poder entre os países...","data_publicacao":"13/06/2025 09:09:31","produto_id":0,"produtos":"","editorias":"ibge","imagens":"{\"image_intro\":\"images\\/agenciadenoticias\\/ibge\\/2025_06\\/global-01.jpg\",\"float_intro\":\"\",\"image_intro_alt\":\"\",\"image_intro_caption\":\"\",\"image_fulltext\":\"images\\/agenciadenoticias\\/ibge\\/2025_06\\/global-01.jpg\",\"float_fulltext\":\"\",\"image_fulltext_alt\":\"\",\"image_fulltext_caption\":\"\"}","produtos_relacionados":"","destaque":true,"link":"http://agenciadenoticias.ibge.gov.br/agencia-noticias/2012-agencia-de-noticias/noticias/43716-mesa-global-debate-a-construcao-de-novo-multilateralismo-para-os-paises-em-desenvolvimento.html"}]}